scrap_lbc_lille
…
nordloccom <- nordloc %>% 
  group_by(commune) %>%
  summarise(mean(prix_m2),
            mean(surface_all),
            mean(prix),
            nombre = n()) %>%
  ungroup() %>%
  filter(nombre>10) %>%
  filter(commune != "") %>%
  mutate(prix_m2 = `mean(prix_m2)`,
         surface = `mean(surface_all)`)

nordloccom

## # A tibble: 30 x 7
##    commune  `mean(prix_m2)` `mean(surface_a `mean(prix)` nombre prix_m2 surface
##    <chr>              <dbl>            <dbl>        <dbl>  <int>   <dbl>   <dbl>
##  1 "Arment           12.2              50.7         561.     31   12.2     50.7
##  2 "Bourbo            8.57             53.3         444.     11    8.57    53.3
##  3 "Cambra           10.7              54.7         520.     73   10.7     54.7
##  4 "Caudry            8.17             68.4         514.     15    8.17    68.4
##  5 "Croix "           18.0              42.9         617.     14   18.0     42.9
##  6 "Denain            8.56             73.8         536.     11    8.56    73.8
##  7 "Douai "           12.5              49.8         537.     61   12.5     49.8
##  8 "Dunker           12.0              55.2         594.     33   12.0     55.2
##  9 "Faches           12.2              64.3         720.     17   12.2     64.3
## 10 "Gravel           10.7              68.1         668.     13   10.7     68.1
## #  with 20 more rows
…
